/home/fotis/java/httpServer/SimpleJavaHttpServer/src/com/happylife/demo/Handlers.java
/home/fotis/java/httpServer/SimpleJavaHttpServer/src/com/happylife/demo/SimpleHttpsServer.java
/home/fotis/java/httpServer/SimpleJavaHttpServer/src/com/happylife/demo/SimpleHttpServer.java
/home/fotis/java/httpServer/SimpleJavaHttpServer/src/com/happylife/demo/Main.java
